[
  {
    "link": "home",
    "text": "Home Page",
    "iconUrl" : "assets/menu-icons/home.png"
  },
  {
    "link": "calender",
    "text": "Calender",
    "iconUrl" : "assets/menu-icons/calender.png"
  },
  {
    "link": "schedule",
    "text": "Schedule",
    "iconUrl" : "assets/menu-icons/bell-schedule.png"
  }
]